{
    "schemaVersion": 1,
    "id": "quazi-modded",
    "version": "${version}",
    "name": "Quazi-Modded",
    "description": "Quazi-Modded is a Minecraft mod that aims to add smaller, standalone features to survival mode. It has a focus on consistent, vanilla-style art direction and creating an atmosphere.",
    "authors": [
        {
            "name": "Origami Games",
            "contact": {
                "homepage": "https://origami-games.github.io",
                "twitter": "https://twitter.com/origamimaps",
                "discord": "https://origami-games.github.io/discord",
                "patreon": "https://origami-games.github.io/patreon"
            }
        }
    ],
    "contact": {
        "homepage": "https://origami-games.github.io/quazi-modded",
        "sources": "https://gitlab.com/origami-games/quazi-modded",
        "issues": "https://gitlab.com/origami-games/quazi-modded/issues"
    },
    "license": "GPL-3.0",
    "icon": "pack.png",
    "environment": "*",
    "entrypoints": {
        "main": [
            "co.origamigames.quazimodded.QuaziModded"
        ],
        "client": [
            "co.origamigames.quazimodded.QuaziModdedClient"
        ]
    },
    "mixins": [
        "quazi-modded.mixins.json"
    ],
    "depends": {
        "fabricloader": ">=0.7.2",
        "fabric": "*",
        "minecraft": "1.15.x",
        "sheet-lib": ">=1.3.0"
    },
    "suggests": {
        "flamingo": "*"
    }
}
